{
  "spider": "./custom_spider_stable.jar;md5;E60EE56ECB22EA3575471E7DD9E0C338",
  "wallpaper": "http://www.kf666888.cn/api/tvbox/img",
  "warningText": "X影视Lite友情提示：广告都是骗子，爱护家人，谨防受骗！！！",
  "lives": [
    {
      "name": "live",
      "type": 0,
      "url": "./lib/live_Lite.txt",
      "playerType": 1,
      "ua": "okhttp/3.12.13",
      "epg": "http://epg.112114.xyz/?ch={name}&date={date}",
      "logo": "https://epg.112114.xyz/logo/{name}.png"
    }
  ],

  "sites": [
   {"key": "dr_看动漫", "name": "🔥动漫", "type": 3, "api": "./lib/merge.min.js", "searchable": 0, "quickSearch": 0, "filterable": 1, "ext": "./lib/哔哩影视.js"} ,
     {"key": "dr_码上NYA", "name": "🔥NYA动漫", "type": 3, "api": "./lib/merge.min.js", "searchable": 1, "quickSearch": 1, "filterable": 1, "ext": "https://gitee.com/bestpvp/tm/raw/master/source/nightly/sites/码上/NyaFun.js"},
      {
      "key": "蓝猫动漫",
      "name": "🌊蓝猫动漫",
      "type": 3,
      "api": "csp_XBPQ",
      "ext": "分类:日漫$1#国漫$2#剧场$3#美漫$4#少儿$5,分类url:https://www.lmfun.vip/vodshow/area/{area}/by/{by}/class/{class}/id/{cateId}/page/{catePg}/year/{year}.html"
    },
    {
      "key": "csp_动漫巴士",
      "name": "🤖动漫巴士",
      "type": 3,
      "api": "csp_XPath",
      "spider": "https://jihulab.com/duomv/xduo/-/raw/main/custom_spider.jar;md5;1948098B2A3D81773E059F00A1D97224",
      "searchable": 1,
      "quickSearch": 1,
      "filterable": 0,
      "ext": "./lib/动漫巴士.json"
    }, 
   {"key": "csp_Free", "name": "👌Freeok动漫", "type": 3, "api": "csp_XBPQ","searchable": 1,
"quickSearch": 1,"filterable": 1,"ext": "./lib/freeok-dongman.json","jar": "./lib/小米ab.jar" },

    {"key":"csp_视觉","name":"👓视觉动漫","type":3,"api":"csp_XBPQ","searchable":1,"quickSearch":1,
 "filterable":1,"ext":"./lib/xinshijue-dongman.json"},
 {"key": "csp_XYQHiker_在线之家","name":"🏠在线动漫","type":3,"api":"csp_XYQHiker","searchable":1,"quickSearch":1,"filterable":1,"ext":"./dm/在线之家动漫.json ","jar":"./XYQ.jar;md5;ccd12ddbc8857f88a6f52af005cd016e"},
        {
      "key": "csp_XYQHiker_影视工场",
      "name": "🏭工场动漫",
      "type": 3,
      "api": "csp_XYQHiker",
      "searchable": 1,
      "quickSearch": 1,
      "changeable": 1,
      "ext": "./dm/影视工场动漫.json",
      "jar":"./XYQ.jar;md5;ccd12ddbc8857f88a6f52af005cd016e"
    }, 

     {
    "key": "csp_XBPQ_无忧",
   "name": "🍉无忧动漫",
     "type": 3,
     "api": "csp_XBPQ",
     "searchable": 1,
     "quickSearch": 1,
       "filterable": 1,
        "ext": { "分类url": "https://wyysi.com/vodshow/{cateId}-{area}-{by}-{class}-----{catePg}---{year}.html",
        "分类": "动漫$4"
 }},
            {
    "key": "csp_XBPQ_可乐",
   "name": "🍉可乐动漫",
     "type": 3,
     "api": "csp_XBPQ",
     "searchable": 1,
     "quickSearch": 1,
       "filterable": 1,
        "ext": { "分类url": "https://cokeby.com/vodshow/{cateId}-{area}-{by}-{class}-----{catePg}---{year}.html",
        "分类": "动漫$3" }},
 
       

   
   {"key": "xml_火狐", "name": "💢火狐动漫", "type": 1,"api": "https://hhzyapi.com/api.php/provide/vod/?ac=list",
"searchable": 1,"quickSearch": 0,"filterable": 1,"categories": [ "动画片", "国产动漫","中国动漫","日本动漫","日韩动漫","欧美动漫","港台动漫","海外动漫","动漫","动漫电影"]},
   {"key": "xml_优质", "name": "💢优质动漫", "type": 1,"api": "https://api.1080zyku.com/inc/apijson.php?ac=list",
"searchable": 1,"quickSearch": 0,"filterable": 1,"categories": [ "动画片", "国产动漫","中国动漫","日本动漫","日韩动漫","欧美动漫","港台动漫","海外动漫","动漫","动漫电影"]},
{"key":"csp_xml_新浪资源","name":"💢新浪动漫","type":1,"api":"http://api.xinlangapi.com/xinlangapi.php/provide/vod/",
"playUrl":"","searchable":1,"quickSearch":1,"categories": ["动漫","动漫电影","国产动漫","日本动漫","欧美动漫","港台动漫","海外动漫"]},
{"key": "csp_SNzy","name": "💢索尼动漫","type": 1,"api": "https://suoniapi.com/api.php/provide/vod/?ac=list",
  "searchable": 1,"quickSearch": 1,"filterable": 1,"categories": [ "动画片", "国产动漫","中国动漫","日本动漫","日韩动漫","欧美动漫","港台动漫","海外动漫","动漫","动漫电影"] },

 { "key": "暴風","name": "💢暴風动漫","type": 1,"api": "https://bfzyapi.com/api.php/provide/vod","searchable": 1,
      "changeable": 1,"categories": ["动画片", "国产动漫","日本动漫","欧美动漫","港台动漫","海外动漫"] },

   { "key": "量子", "name": "💢量子动漫", "type": 0, "api": "https://cj.lziapi.com/api.php/provide/vod/at/xml/",
      "searchable": 1, "changeable": 1 ,"categories": [ "动画片", "国产动漫","中国动漫","日本动漫","日韩动漫","欧美动漫","港台动漫","海外动漫","动漫","动漫电影"]},

   { "key": "非凡", "name": "💢非凡动漫", "type": 0, "api": "http://cj.ffzyapi.com/api.php/provide/vod/at/xml/",
      "searchable": 1,"changeable": 1,"categories": [ "动画片", "国产动漫","中国动漫","日本动漫","日韩动漫","欧美动漫","港台动漫","海外动漫","动漫","动漫电影"]},

  {"key": "csp_xml_享看", "name": "💢享看动漫","type": 1,"searchable": 1,
      "quickSearch": 1,"filterable": 1,"api": "https://xkanzy10.com/api.php/provide/vod","categories": [ "动画片", "国产动漫","中国动漫","日本动漫","日韩动漫","欧美动漫","港台动漫","海外动漫","动漫","动漫电影"]  },

 {"key":"快看","name":"💢快看动漫","type":1,"api":"https://kuaikan-api.com/api.php/provide/vod/","categories": [ "动画片", "国产动漫","中国动漫","日本动漫","日韩动漫","欧美动漫","港台动漫","海外动漫","动漫","动漫电影"] },
 

 {"key": "49zy","name": "💢49动漫","type": 1,"api": "https://49zyw.com/api.php/provide/vod/?ac=list","searchable": 1,"quickSearch": 1, "filterable": 1, "changeable": 1,"categories": ["动画片", "国产动漫","日本动漫","欧美动漫","港台动漫"]},   
     
 {"key": "csp_无尽","name": "💢无尽动漫","type": 1,"api": "https://api.wujinapi.com/api.php/provide/vod/","searchable": 1,"quickSearch": 0,"filterable": 1,"categories": ["动画片", "国产动漫","中国动漫","日本动漫","日韩动漫","欧美动漫","港台动漫","海外动漫","动漫"]},

  {"key":"csp_xml_红牛资源","name":"💢红牛动漫","type":1,"api":"https://www.hongniuzy2.com/api.php/provide/vod/",
"playUrl":"","searchable":1,"quickSearch":1,"categories": ["动画片", "国产动漫","中国动漫","日本动漫","日韩动漫","欧美动漫","港台动漫","海外动漫","动漫","动漫电影"]},

        {
            "key": "次元城",
            "name": "次元城",
            "type": 3,
            "api": "csp_Cycdm",
            "searchable": 1,
            "quickSearch": 1,
            "filterable": 1,
            "ext": "http://app.95189371.cn/ciyuancheng.php/v6/",
            "jar": "https://jihulab.com/zhulr7765/tvbox/-/raw/main/jar/spider.jar"
        },

{"key":"去看吧","name":"💨去看┃动漫","type":3,"api":"csp_XBPQ","jar":"./jar.jar;md5;9fc2ed12545bcb180d1bbdbbf620102","searchable":1,"quickSearch":1,"filterable":1,"ext":"./dm/去看吧.json"}

     


 
  //结尾  
  ],

  "parses": [
    {"name":"解析聚合","type":3,"url":"Demo"},

{"name":"4K","type":1,"url":"http://124.223.51.144:999/api/?key=a8b552b9811ca030a5b58db8a8bb11d0&url="},

{"name":"XCY","type":1,"url":"http://xn--wnup5g.xn--z7x900a.love:63/Art0425/analysis.php?v="},

{"name":"DYG","type":0,"url":"https://vip.lianfaka.com/vip/?url=","ext":{"header":{"User-Agent":"Mozilla/5.0 (iPhone; CPU iPhone OS 13_2_3 like Mac OS X) AppleWebKit/605.1.15 (KHTML, like Gecko) Version/13.0.3 Mobile/15E148 Safari/604.1","Referer":"https://www.dy6g.com/"}}},

{"name":"880","type":1,"url":"http://110.42.2.247:880/analysis/json/?uid=2056&my=efjkmvBGHILMSUWXY0&url="},

{"name":"5208","type":1,"url":"http://43.143.146.199:5208/api/?key=bh5YLTM058iwk3H6mu&url="},

{"name":"5555","type":1,"url":"http://113.125.122.109:5555/aiku.php?url="},

{"name":"5566","type":1,"url":"http://47.119.122.235:5566/json/free.php?url="},

{"name":"4567","type":1,"url":"http://27.124.4.42:4567/jhjson/ceshi.php?url="},

{"name":"爱酷","type":0,"url":"https://jx.zhanlangbu.com/?url="},

{"name":"LLK","type":1,"url":"https://vip.ckllk.com/API.php?appkey=404164cdd1472561b4c61f1845e0bff8&url="},

{"name":"尘烟","type":1,"url":"https://vip.xuux.icu/home/api?type=ys&uid=1325731&key=adfgilmnpwzBDEJPY3&url="},

{"name":"678","type":1,"url":"http://49.235.238.58:678/?url="},

{"name":"OK","type":0,"url":"https://okjx.cc/?url="},

{"name":"YK","type":0,"url":"https://yun.ckmov.com/?url="},

{"name":"CF","type":0,"url":"https://jxjson.cf/?url="},

{"name":"泽云","type":0,"url":"https://player.iizny.com/?url="},

{"name":"JSPL","type":0,"url":"https://jx.jsonplayer.com/player/?url="},

{"name":"777","type":0,"url":"https://jx.777jiexi.com/player/?url="},

{"name":"CGD","type":0,"url":"https://www.cgdyw.net/jiexi/jiexi-gf/?url="},

{"name":"夜幕", "type":0,"url":"https://www.yemu.xyz/?url=","showType":3},

{"name":"JXDP","type":0,"url": "https://jxdp.codermart.net/?url="},

{"name":"剖云","type":0,"url":"https://www.pouyun.com/?url="},

{"name":"JY","type":0,"url":"https://jx.playerjy.com/?url="},



		{
      "name": "聚合1",
      "type": 3,
      "url": "Demo"
    },
    {
      "name": "聚合0",
      "type": 3,
      "url": "Web"
    },
    {
      "name": "神秘的哥哥们",
      "type": 1,
      "url": "http://jx.wogg.link:63/jiexi/饭特析.php?url="
    },
    {
      "name": "解析",
      "type": 1,
      "url": "https://jx.zhanlangbu.com/?url=",
      "ext": {
        "flag": [
          "qq",
          "腾讯",
          "qiyi",
          "爱奇艺",
          "奇艺",
          "youku",
          "优酷",
          "sohu",
          "搜狐",
          "letv",
          "乐视",
          "mgtv",
          "芒果",
          "imgo",
          "rx",
          "ltnb",
          "bilibili",
          "1905",
          "xigua"
        ]
      }
    },
    {
      "name": "全部",
      "type": 1,
      "url": "https://api.json.icu/api/?key=4f8fb5042b695d5c515f6343af716af8&url="
    },
    {
      "name": "来自",
      "type": 0,
      "url": "https://json.key521.cn/api/?key=df27d9ca9ec97e22c47f8565a50aa6f5&url="
    },
    {
      "name": "网络",
      "type": 1,
      "url": "http://119.91.123.253:1234/Api/cs.php?url="
    },
    {
      "name": "大家",
      "type": 0,
      "url": "https://jx.xmflv.com/?url=",
      "ext": {
        "flag": [
          "qq",
          "腾讯",
          "qiyi",
          "爱奇艺",
          "奇艺",
          "youku",
          "优酷",
          "mgtv",
          "芒果",
          "imgo",
          "letv",
          "乐视",
          "pptv",
          "PPTV",
          "sohu",
          "bilibili",
          "哔哩哔哩",
          "哔哩"
        ],
        "header": {
          "User-Agent": "okhttp/4.1.0"
        }
      }
    },
    {
      "name": "随便用",
      "type": 1,
      "url": "https://jx.ccabc.cc/xc/?key=5567332json&url="
    },
    {
      "name": "坏了我",
      "type": 0,
      "url": "http://27.124.4.42:4567/jhjson/ceshi.php?url=",
      "ext": {
        "flag": [
          "qq",
          "腾讯",
          "qiyi",
          "爱奇艺",
          "奇艺",
          "youku",
          "优酷",
          "mgtv",
          "imgo",
          "芒果",
          "letv",
          "乐视",
          "pptv",
          "PPTV",
          "sohu",
          "bilibili",
          "哔哩哔哩",
          "哔哩"
        ],
        "header": {
          "User-Agent": "okhttp/4.1.0"
        }
      }
    },
    {
      "name": "再找来",
      "type": 1,
      "url": "http://xiaoxin.1080p.fun/home/api?type=ys&uid=91198&key=bhntuwyAJLMTUY1478&url="
    },
    {
      "name": "Json轮询",
      "type": 2,
      "url": "Sequence"
    },
    {
      "name": "Json并发",
      "type": 2,
      "url": "Parallel"
    },
    {
      "name": "解析聚合",
      "type": 3,
      "url": "Demo"
    },
    {
      "name": "4k专用",
      "type": 1,
      "url": "https://jx.tvcms.top/api/?key=0e6ba5eac2b38a9f02c3ebea29ab96eb&url=",
      "ext": {
        "flag": [
          "TD"
        ],
        "header": {
          "User-Agent": "Dart/2.14 (dart:io)"
        }
      }
    },
    {
      "name": "酷云高清",
      "type": 1,
      "url": "http://110.42.2.247:880/analysis/json/?uid=2100&my=afimnpqrvBHJKOQS47&mgtv=app&url=",
      "ext": {
        "flag": [
          "qq",
          "腾讯",
          "qiyi",
          "爱奇艺",
          "奇艺",
          "youku",
          "优酷",
          "mgtv",
          "芒果",
          "letv",
          "乐视",
          "pptv",
          "PPTV",
          "sohu",
          "bilibili",
          "哔哩哔哩",
          "哔哩"
        ],
        "header": {
          "User-Agent": "okhttp/4.1.0"
        }
      }
    },
    {
      "name": "酷云高清2",
      "type": 1,
      "url": "http://110.42.2.247:880/analysis/json/?uid=2373&my=fgimDLMOQTUWYZ0568&url=",
      "ext": {
        "flag": [
          "qq",
          "腾讯",
          "qiyi",
          "爱奇艺",
          "奇艺",
          "youku",
          "优酷",
          "mgtv",
          "芒果",
          "letv",
          "乐视",
          "pptv",
          "PPTV",
          "sohu",
          "bilibili",
          "哔哩哔哩",
          "哔哩"
        ],
        "header": {
          "User-Agent": "okhttp/4.1.0"
        }
      }
    },
    {
      "name": "蓝光秒播",
      "type": 1,
      "url": "http://43.143.107.57:417/api/?key=73259318e3d893e5b73fd87f20fbc2f7&url=",
      "ext": {
        "flag": [
          "qq",
          "qiyi",
          "mgtv",
          "youku",
          "letv",
          "sohu",
          "xigua",
          "1905",
          "优播线路",
          "腾播线路"
        ],
        "header": {
          "User-Agent": "Dart/2.14 (dart:io)"
        }
      }
    },
    {
      "name": "666",
      "type": 1,
      "url": "http://jx.fuqizhishi.com:63/接口地址www.肥猫.love/肥猫专用.php?url="
    },
    {
      "name": "777",
      "type": 1,
      "url": "http://27.124.4.42:4567/jhjson/ceshi.php?url="
    },
    {
      "name": "小城解析",
      "type": 1,
      "url": "https://jx.ccabc.cc/xc/?key=5567332json&url="
    },
    {
      "name": "星辰云解析",
      "type": 1,
      "url": "https://json.key521.cn/api/?key=df27d9ca9ec97e22c47f8565a50aa6f5&url="
    },
    {
      "name": "小新解析",
      "type": 1,
      "url": "http://xiaoxin.1080p.me/home/api?type=ys&uid=2781037&key=eijkoqxBDFGILRTUWZ&url="
    },
    {
      "name": "小鱼解析",
      "type": 1,
      "url": "http://json.84jia.com/home/api?type=ys&uid=335253&key=fjklpqsyCDGMNQRWX8&url="
    },
    {
      "name": "parwix稳定",
      "type": 0,
      "url": "https://jx.bozrc.com:4433/player/?url=",
      "ext": {
        "flag": [
          "qq",
          "腾讯",
          "qiyi",
          "iqiyi",
          "爱奇艺",
          "奇艺",
          "youku",
          "优酷",
          "mgtv",
          "芒果",
          "letv",
          "乐视",
          "pptv",
          "PPTV",
          "sohu",
          "bilibili",
          "哔哩哔哩",
          "哔哩"
        ]
      }
    },
    {
      "name": "keyu",
      "type": 1,
      "url": "http://newjiexi.gotka.top/keyu3.php?url=",
      "ext": {
        "flag": [
          "qq",
          "腾讯",
          "qiyi",
          "爱奇艺",
          "奇艺",
          "youku",
          "优酷",
          "mgtv",
          "芒果",
          "letv",
          "乐视",
          "pptv",
          "PPTV",
          "sohu",
          "bilibili",
          "哔哩哔哩",
          "哔哩"
        ],
        "header": {
          "User-Agent": "okhttp/4.1.0"
        }
      }
    },
    {
      "name": "lk",
      "type": 1,
      "url": "https://k.json.icu/home/api?type=ys&uid=6399107&key=bdlmrswBDHIKZ01238&url="
    },
    {
      "name": "TVB云播",
      "type": 1,
      "url": "https://jxm.qwrev534.top/?url="
    },
    {
      "name": "777",
      "type": 0,
      "url": "https://jx.777jiexi.com/player/?url="
    },
    {
      "name": "1",
      "type": 0,
      "url": "https://jxdp.codermart.net/?url="
    },
    {
      "name": "AG",
      "type": 0,
      "url": "https://www.codjx.com/?url="
    },
    {
      "name": "月",
      "type": 0,
      "url": "https://jx.xmflv.com/?url="
    },
    {
      "name": "光",
      "type": 1,
      "url": "http://pandown.pro/app/ysmjx.php?url=",
      "ext": {
        "flag": [
          "qq",
          "腾讯",
          "qiyi",
          "爱奇艺",
          "奇艺",
          "youku",
          "优酷",
          "mgtv",
          "芒果",
          "letv",
          "乐视",
          "pptv",
          "PPTV",
          "sohu",
          "bilibili",
          "哔哩哔哩",
          "哔哩"
        ],
        "header": {
          "User-Agent": "okhttp/4.1.0"
        }
      }
    },
    {
      "name": "宝",
      "type": 1,
      "url": "http://jx.fuqizhishi.com:63/API.php?appkey=feimao&url="
    },
    {
      "name": "盒",
      "type": 0,
      "url": " https://tljiaqing.nde.tw/m3u8/?url="
    },
    {
      "name": "BOX",
      "type": 1,
      "url": "http://45.248.10.163:4433/json.php?wap=0&url="
    },
    {
      "name": "解析",
      "type": 0,
      "url": "https://h5.freejson.xyz/player/?url="
    },
    {
      "name": "解析2",
      "type": 1,
      "url": "rxjx.kuanjv.com/allm3u8.php?url="
    },
    {
      "name": "解析4",
      "type": 1,
      "url": "http://lanlan.ckflv.cn/?url=",
      "ext": {
        "flag": [
          "qiyi",
          "qq",
          "letv",
          "sohu",
          "youku",
          "mgtv",
          "bilibili",
          "wasu",
          "xigua",
          "1905"
        ]
      }
    },
    {
      "name": "解析5",
      "type": 1,
      "url": "https://www.1920lgzy.top/json.php?url=",
      "ext": {
        "header": {
          "User-Agent": "Mozilla/5.0"
        }
      }
    },
    {
      "name": "解析6",
      "type": 1,
      "url": "https://hc.izny.cn/json.php?url="
    },
    {
      "name": "解析7",
      "type": 1,
      "url": "https://rx.bt5v.com/json/jsonindex.php/?url="
    },
    {
      "name": "解析8",
      "type": 1,
      "url": "https://www.nxflv.com/?url=",
      "header": {
        "User-Agent": "Mozilla/5.0"
      }
    },
    {
      "name": "解析9",
      "type": 1,
      "url": "http://3.37.195.161:54371/parse/api/无名.js?url=",
      "header": {
        "User-Agent": "Mozilla/5.0"
      }
    },
    {
      "name": "Web聚合",
      "type": 3,
      "url": "Web"
    },
    {
      "name": "Json聚合",
      "type": 3,
      "url": "Demo"
    },
    {
      "name": "哥哥们",
      "type": 1,
      "url": "http://jx.wogg.link:63/jiexi/饭特析.php?url="
    },
    {
      "name": "战狼",
      "type": 0,
      "url": "https://jx.zhanlangbu.com/?url=",
      "ext": {
        "flag": [
          "qq",
          "腾讯",
          "qiyi",
          "爱奇艺",
          "奇艺",
          "youku",
          "优酷",
          "mgtv",
          "芒果",
          "letv",
          "乐视",
          "pptv",
          "PPTV",
          "sohu",
          "bilibili",
          "哔哩哔哩",
          "哔哩"
        ]
      }
    },
    {
      "name": "777",
      "type": 0,
      "url": "https://jx.777jiexi.com/player/?url=",
      "ext": {
        "flag": [
          "qq",
          "腾讯",
          "qiyi",
          "爱奇艺",
          "奇艺",
          "youku",
          "优酷",
          "mgtv",
          "芒果",
          "letv",
          "乐视",
          "pptv",
          "PPTV",
          "sohu",
          "bilibili",
          "哔哩哔哩",
          "哔哩"
        ],
        "header": {
          "User-Agent": "okhttp/4.1.0"
        }
      }
    },
    {
      "name": "jsonplayer",
      "type": 0,
      "url": "https://jx.jsonplayer.com/player/?url=",
      "ext": {
        "flag": [
          "qq",
          "腾讯",
          "qiyi",
          "爱奇艺",
          "奇艺",
          "youku",
          "优酷",
          "mgtv",
          "芒果",
          "letv",
          "乐视",
          "pptv",
          "PPTV",
          "sohu",
          "bilibili",
          "哔哩哔哩",
          "哔哩"
        ],
        "header": {
          "User-Agent": "okhttp/4.1.0"
        }
      }
    },
    {
      "name": "xmflv",
      "type": 0,
      "url": "https://jx.xmflv.com/?url=",
      "ext": {
        "flag": [
          "qq",
          "腾讯",
          "qiyi",
          "爱奇艺",
          "奇艺",
          "youku",
          "优酷",
          "mgtv",
          "芒果",
          "letv",
          "乐视",
          "pptv",
          "PPTV",
          "sohu",
          "bilibili",
          "哔哩哔哩",
          "哔哩"
        ]
      }
    },
    {
      "name": "bozrc",
      "type": 0,
      "url": "https://jx.bozrc.com:4433/player/?url=",
      "ext": {
        "flag": [
          "qq",
          "腾讯",
          "qiyi",
          "爱奇艺",
          "奇艺",
          "youku",
          "优酷",
          "mgtv",
          "芒果",
          "letv",
          "乐视",
          "pptv",
          "PPTV",
          "sohu",
          "bilibili",
          "哔哩哔哩",
          "哔哩"
        ],
        "header": {
          "User-Agent": "okhttp/4.1.0"
        }
      }
    },
    {
      "name": "ckmov",
      "type": 0,
      "url": "https://yun.ckmov.com/?url=",
      "ext": {
        "flag": [
          "qq",
          "腾讯",
          "qiyi",
          "爱奇艺",
          "奇艺",
          "youku",
          "优酷",
          "mgtv",
          "芒果",
          "letv",
          "乐视",
          "pptv",
          "PPTV",
          "sohu",
          "bilibili",
          "哔哩哔哩",
          "哔哩"
        ]
      }
    },
    {
      "name": "777",
      "type": 0,
      "url": "https://jx.777jiexi.com/player/?url="
    },
    {
      "name": "杰森",
      "type": 0,
      "url": "https://jx.jsonplayer.com/player/?url="
    },
    {
      "name": "战狼",
      "type": 0,
      "url": "https://jx.zhanlangbu.com/?url="
    },
    {
      "name": "ok",
      "type": 0,
      "url": "https://okjx.cc/?url="
    },
    {
      "name": "bozrc",
      "type": 0,
      "url": "https://jx.bozrc.com:4433/player/?url=",
      "ext": {
        "flag": [
          "qq",
          "腾讯",
          "qiyi",
          "爱奇艺",
          "奇艺",
          "youku",
          "优酷",
          "mgtv",
          "芒果",
          "letv",
          "leshi",
          "LS",
          "pptv",
          "PPTV",
          "sohu",
          "bilibili",
          "哔哩哔哩",
          "哔哩"
        ],
        "header": {
          "User-Agent": ""
        }
      }
    },
    {
      "name": "不累",
      "type": 0,
      "url": "https://blbfq.f3322.net/player/analysis.php?v=",
      "ext": {
        "flag": [
          "qiyi",
          "qq",
          "letv",
          "sohu",
          "youku",
          "mgtv",
          "bilibili",
          "wasu",
          "xigua",
          "1905"
        ]
      }
    },
    {
      "name": "cod",
      "type": 0,
      "url": "https://ksksl.codjx.com/?url="
    },
    {
      "name": "byg解析",
      "type": 0,
      "url": "https://byg.ziqj5.shop/?url="
    },
    {
      "name": "xmflv",
      "type": 0,
      "url": "https://jx.xmflv.com/?url="
    },
    {
      "name": "365",
      "type": 0,
      "url": "https://chaxun.truechat365.com/?url=",
      "ext": {
        "flag": [
          "qq",
          "腾讯",
          "qiyi",
          "iqiyi",
          "爱奇艺",
          "奇艺",
          "youku",
          "优酷",
          "mgtv",
          "芒果",
          "letv",
          "乐视",
          "pptv",
          "PPTV",
          "sohu",
          "bilibili",
          "哔哩哔哩",
          "哔哩"
        ]
      }
    },
    {
      "name": "26db",
      "type": 0,
      "url": "http://vip.26db.cn/g/?url="
    },
    {
      "name": "看看",
      "type": 0,
      "url": "https://jx.m3u8.pw/?url="
    },
    {
      "name": "FreeOK",
      "type": 0,
      "url": "https://play.86516.tk/OKPlayer/?url="
    },
    {
      "name": "free",
      "type": 0,
      "url": "https://h5.freejson.xyz/player/?url="
    },
    {
      "name": "聚合1",
      "type": 3,
      "url": "Demo"
    },
    {
      "name": "聚合0",
      "type": 3,
      "url": "Web"
    },
    {
      "name": "黄黄🍌",
      "type": 1,
      "url": "http://110.42.2.247:880/analysis/json/?uid=2449&my=acfgikquvzFGJRW459&format=data&url=",
      "ext": {
        "flag": [
          "mgtv",
          "qiyi",
          "imgo",
          "爱奇艺",
          "奇艺",
          "qq",
          "腾讯",
          "youku",
          "优酷",
          "pptv",
          "PPTV",
          "letv",
          "乐视",
          "leshi",
          "bilibili",
          "哔哩哔哩",
          "哔哩",
          "mgtv"
        ],
        "header": {
          "User-Agent": "okhttp/3.12.0"
        }
      }
    },
    {
      "name": "稻香🌾",
      "type": 1,
      "url": "http://27.124.4.42:4567//jhjson//ceshi.php?url=",
      "ext": {
        "flag": [
          "mgtv",
          "qiyi",
          "imgo",
          "爱奇艺",
          "奇艺",
          "qq",
          "腾讯",
          "youku",
          "优酷",
          "pptv",
          "PPTV",
          "letv",
          "乐视",
          "leshi",
          "bilibili",
          "哔哩哔哩",
          "哔哩",
          "mgtv",
          "芒果",
          "芒果"
        ],
        "header": {
          "User-Agent": "okhttp/3.12.0"
        }
      }
    },
    {
      "name": "小米米🥭",
      "type": 1,
      "url": "http://jx.wogg.link:63/jiexi/饭特析.php?url=",
      "ext": {
        "flag": [
          "qiqi-",
          "YuMi-vip",
          "YuMi",
          "mgtv",
          "芒果"
        ]
      }
    },
    {
      "name": "春风🥭",
      "type": 1,
      "url": "http://111.230.24.38:4433/qingfeng.php/?url=",
      "ext": {
        "flag": [
          "qiqi-",
          "mgtv",
          "芒果"
        ]
      }
    },
    {
      "name": "25芒果🥭",
      "type": 1,
      "url": "https://jx.255tv.tk/api/?key=S6kQHaE1gVEY5KAv8L&url=",
      "ext": {
        "flag": [
          "imgo",
          "mgtv",
          "芒果"
        ]
      }
    },
    {
      "name": "解析聚合",
      "type": 3,
      "url": "Demo"
    },
    {
      "name": "Web聚合",
      "type": 3,
      "url": "Web"
    },
    {
      "name": "Json轮询",
      "type": 2,
      "url": "Sequence"
    },
    {
      "name": "Json并发",
      "type": 2,
      "url": "Parallel"
    },
    {
      "name": "小鱼解析",
      "type": 1,
      "url": "http://json.84jia.com/home/api?type=ys&uid=335253&key=fjklpqsyCDGMNQRWX8&url="
    },
    {
      "name": "叉车解析",
      "type": 1,
      "url": "http://cache.json.icu/1804857380.php?url="
    },
    {
      "name": "但行好事",
      "type": 1,
      "url": "http://jx.fuqizhishi.com:63/接口地址www.肥猫.love/肥猫专用.php?url="
    },
    {
      "name": "莫问前程",
      "type": 1,
      "url": "http://27.124.4.42:4567/jhjson/ceshi.php?url="
    },
    {
      "name": "左岸解析",
      "type": 1,
      "url": "http://110.42.2.247:880/analysis/json/?uid=2449&my=acfgikquvzFGJRW459&url="
    },
    {
      "name": "星辰云解析",
      "type": 1,
      "url": "https://json.key521.cn/api/?key=df27d9ca9ec97e22c47f8565a50aa6f5&url="
    },
    {
      "name": "小新解析",
      "type": 1,
      "url": "http://xiaoxin.1080p.fun/home/api?type=ys&uid=91198&key=bhntuwyAJLMTUY1478&url="
    },
    {
      "name": "夜曲解析",
      "type": 1,
      "url": "http://xhww.fun:63/小米特别爱肥猫.php?url=",
      "ext": {
        "flag": [
          "qq",
          "腾讯",
          "qiyi",
          "爱奇艺",
          "奇艺",
          "youku",
          "优酷",
          "sohu",
          "搜狐",
          "letv",
          "乐视",
          "mgtv",
          "芒果",
          "CL4K",
          "renrenmi",
          "ltnb",
          "bilibili",
          "1905",
          "xigua",
          "nongmin",
          "CL4K",
          "xfyun",
          "ffm3u8",
          "lzm3u8",
          "netease",
          "pgyer",
          "TD",
          "qzone",
          "FY",
          "ppayun",
          "Feiyun",
          "zhibo"
        ],
        "header": {
          "User-Agent": "Dalvik/2.1.0 (Linux; U; Android 10; PDHM00 Build/QKQ1.191222.002)"
        }
      }
    }
  ],
  "rules": [
    {"host": "*","rule": ["default.365yg.com"]},
{"host": "dyxs20.com","rule": [".m3u8"]},
{"host": "www.agemys.cc","rule": ["cdn-tos","obj/tos-cn"]},
{"host": "www.sharenice.net","rule": ["http.*?/play.{0,3}\\?[^url]{2,8}=.*"]},
{"host": "www.sharenice.net","rule": ["qianpailive.com","vid="]},
{"host": "*","rule": ["douyin.com/aweme","video_id="]},
{"host": "*","rule": ["huoshan.com","/item/video/"]},
{"host": "*","rule": ["http((?!http).){12,}?\\.(m3u8|mp4|flv|avi|mkv|rm|wmv|mpg|m4a)\\?.*"]},
{"host": "*","rule": ["http((?!http).){12,}\\.(m3u8|mp4|flv|avi|mkv|rm|wmv|mpg|m4a)"]},

    {
      "name": "lz",
      "hosts": [
        "vip.lz",
        "hd.lz",
        "v.cdnlz"
      ],
      "regex": [
        "#EXT-X-DISCONTINUITY\\r*\\n*#EXTINF:6.433333,[\\s\\S]*?#EXT-X-DISCONTINUITY",
        "#EXTINF.*?\\s+.*?1o.*?\\.ts\\s+"
      ]
    },
    {
      "name": "农民",
      "hosts": [
        "toutiaovod.com"
      ],
      "regex": [
        "video/tos/cn"
      ]
    },
    {
      "name": "ff",
      "hosts": [
        "vip.ffzy",
        "hd.ffzy"
      ],
      "regex": [
        "#EXT-X-DISCONTINUITY\\r*\\n*#EXTINF:6.666667,[\\s\\S]*?#EXT-X-DISCONTINUITY",
        "#EXTINF.*?\\s+.*?1o.*?\\.ts\\s+"
      ]
    },
    {
      "name": "bf",
      "hosts": [
        "bfzy",
        "s5.bfzycdn"
      ],
      "regex": [
        "#EXT-X-DISCONTINUITY\\r*\\n*#EXTINF:3,[\\s\\S]*?#EXT-X-DISCONTINUITY"
      ]
    },
    {
      "name": "hs",
      "hosts": [
        "huoshan.com"
      ],
      "regex": [
        "item_id="
      ]
    },
    {
      "name": "dy",
      "hosts": [
        "douyin.com"
      ],
      "regex": [
        "is_play_url="
      ]
    },
    {
      "name": "cl",
      "hosts": [
        "magnet"
      ],
      "regex": [
        "最 新",
        "直 播",
        "更 新"
      ]
    },
    {
      "name": "proxy",
      "hosts": [
        "raw.githubusercontent.com",
        "googlevideo.com",
        "cdn.v82u1l.com",
        "cdn.iz8qkg.com",
        "cdn.kin6c1.com",
        "c.biggggg.com",
        "c.olddddd.com",
        "haiwaikan.com",
        "www.histar.tv",
        "youtube.com",
        "uhibo.com",
        ".*boku.*",
        ".*nivod.*",
        ".*ulivetv.*"
      ]
    },
    {
      "name": "海外看",
      "hosts": [
        "haiwaikan"
      ],
      "regex": [
        "8.1748",
        "10.0099",
        "10.3333",
        "16.0599"
      ]
    },
    {
      "name": "暴風",
      "hosts": [
        "bfzy"
      ],
      "regex": [
        "#EXT-X-DISCONTINUITY\\r*\\n*#EXTINF:3,[\\s\\S]*?#EXT-X-DISCONTINUITY"
      ]
    },
    {
      "name": "星星",
      "hosts": [
        "aws.ulivetv.net"
      ],
      "regex": [
        "#EXT-X-DISCONTINUITY\\r*\\n*#EXTINF:8,[\\s\\S]*?#EXT-X-DISCONTINUITY"
      ]
    },
    {
      "name": "量子",
      "hosts": [
        "vip.lz",
        "hd.lz",
        "v.cdnlz"
      ],
      "regex": [
        "#EXT-X-DISCONTINUITY\\r*\\n*#EXTINF:6.433333,[\\s\\S]*?#EXT-X-DISCONTINUITY",
        "#EXTINF.*?\\s+.*?1o.*?\\.ts\\s+"
      ]
    },
    {
      "name": "非凡",
      "hosts": [
        "vip.ffzy",
        "hd.ffzy"
      ],
      "regex": [
        "#EXT-X-DISCONTINUITY\\r*\\n*#EXTINF:6.666667,[\\s\\S]*?#EXT-X-DISCONTINUITY",
        "#EXTINF.*?\\s+.*?1o.*?\\.ts\\s+"
      ]
    },
    {
      "name": "火山嗅探",
      "hosts": [
        "huoshan.com"
      ],
      "regex": [
        "item_id="
      ]
    },
    {
      "name": "抖音嗅探",
      "hosts": [
        "douyin.com"
      ],
      "regex": [
        "is_play_url="
      ]
    },
    {
      "name": "農民嗅探",
      "hosts": [
        "toutiaovod.com"
      ],
      "regex": [
        "video/tos/cn"
      ]
    },
    {
      "host": "www.djuu.com",
      "rule": [
        "mp4.djuu.com",
        "m4a"
      ]
    },
    {
      "host": "www.sharenice.net",
      "rule": [
        "huoshan.com",
        "/item/video/"
      ],
      "filter": []
    },
    {
      "host": "www.sharenice.net",
      "rule": [
        "sovv.qianpailive.com",
        "vid="
      ],
      "filter": []
    },
    {
      "host": "www.sharenice.net",
      "rule": [
        "douyin.com",
        "/play/"
      ]
    },
    {
      "host": "m.ysxs8.vip",
      "rule": [
        "ysting.ysxs8.vip:81",
        "xmcdn.com"
      ],
      "filter": []
    },
    {
      "host": "hdmoli.com",
      "rule": [
        ".m3u8"
      ]
    },
    {
      "host": "https://api.live.bilibili.com",
      "rule": [
        "bilivideo.com",
        "/index.m3u8"
      ],
      "filter": [
        "data.bilibili.com/log/web",
        "i0.hdslb.com/bfs/live/"
      ]
    },
    {
      "host": "www.agemys.cc",
      "rule": [
        "cdn-tos",
        "obj/tos-cn"
      ]
    },
    {
      "host": "www.fun4k.com",
      "rule": [
        "https://hd.ijycnd.com/play",
        "index.m3u8"
      ]
    },
    {
      "host": "zjmiao.com",
      "rule": [
        "play.videomiao.vip/API.php",
        "time=",
        "key=",
        "path="
      ]
    },
    {
      "name": "量子廣告",
      "hosts": [
        "vip.lz",
        "hd.lz"
      ],
      "regex": []
    },
    {
      "name": "非凡廣告",
      "hosts": [
        "vip.ffzy",
        "hd.ffzy"
      ],
      "regex": []
    },
    {
      "name": "火山嗅探",
      "hosts": [
        "huoshan.com"
      ],
      "regex": [
        "item_id="
      ]
    },
    {
      "name": "抖音嗅探",
      "hosts": [
        "douyin.com"
      ],
      "regex": [
        "is_play_url="
      ]
    }
  ],
  "flags": [
    "爱 奇 艺",
    "wuduzy",
    "ltnb",
    "chuangying",
    "imgo",
    "奇艺视频",
    "搜狐视频",
    "letv",
    "腾 讯",
    "QQ",
    "xmm",
    "优酷",
    "fy",
    "哔 哩",
    "wasu",
    "哔 哩 哔 哩",
    "mgtv",
    "哔哩哔哩",
    "FY",
    "乐视",
    "m1905 ",
    "dxzy",
    "飞云",
    "iqiyi",
    "芒 果 T V",
    "luanzi",
    "funshion",
    "芒果视频",
    "tudou",
    "BYGA",
    "爱奇艺",
    "BYGB",
    "腾讯",
    "youku",
    "bilibili",
    "QEYSS",
    "aliyun",
    "sohu",
    "乐视视频",
    "芒果",
    "搜狐",
    "122",
    "PPTV",
    "哔哩",
    "rx",
    "qq",
    "AliS",
    "奇艺",
    "优 酷",
    "优酷视频",
    "funshion ",
    "乐 视",
    "SLYS4k",
    "CL4K",
    "feiyun",
    "芒果TV",
    "leshi",
    "xfyun",
    "pptv",
    "搜 狐",
    "腾讯视频",
    "renrenmi",
    "西瓜视频",
    "m1905",
    "qiyi",
    "xigua",
    "FeiYun"
  ],
  "ads": [
    "cnzz.hhttm.top",
    "xg.whsbpw.cn",
    "thy.dacedsfa.cn",
    "s4.cnzz.com",
    "https://lf1-cdn-tos.bytegoofy.com/obj/tos-cn-i-dy/455ccf9e8ae744378118e4bd289288dd",
    "mav.mavuz.com",
    "f5w.as12df.top",
    "hm.baidu.com",
    "www.92424.cn",
    "cms.qdwght.com",
    "ehwe.yhdtns.com",
    "mimg.0c1q0l.cn",
    "cdnjs.hnfenxun.com",
    "z6.cnzz.com",
    "mg.g1mm3d.cn",
    "s9.cnzz.com",
    "xg.gars57.cn",
    "sp.chemacid.cn",
    "z7.cnzz.com",
    "stj.v1vo.top",
    "img.mosflower.cn",
    "www.googletagmanager.com",
    "s23.cnzz.com",
    "s13.cnzz.com",
    "wofwk.aoidf3.com",
    "www.baihuillq.com",
    "tp.vinuxhome.com",
    "z12.cnzz.com",
    "ppl.xunzhuo123.com",
    "z3.cnzz.com",
    "ae01.alicdn.com",
    "wan.51img1.com",
    "z8.cnzz.com",
    "cnzz.mmstat.com",
    "xc.hubeijieshikj.cn",
    "s19.cnzz.com",
    "mscs.svaeuzh.cn",
    "vivovip.mmszxc.top",
    "q11.cnzz.com",
    "k.jinxiuzhilv.com",
    "c.cnzz.com",
    "iqiyi.hbuioo.com",
    "tj.tianwenhu.com",
    "xomk.jiangjunmh.top",
    "www.jixunkyy.cn",
    "img.xunzhuo123.com",
    "z5.cnzz.com",
    "k.wudejia.com",
    "xdn.cqqc3.com",
    "s96.cnzz.com",
    "cdn.bootcss.com",
    "mc.usihnbcq.cn",
    "z1.cnzz.com",
    "vip.ffzyad.com",
    "um.cavuc.com",
    "tips.gamevvip.com",
    "qiu.xixiqiu.com",
    "xg.huataisangao.cn",
    "www.google-analytics.com",
    "z2.cnzz.com"
  ]
}
