{  //https://www.80yy3.com https://www.3ayy.com   https://www.6080yy1.com/   www.6080yy3.com/ https://www.hdmyy.com    新视觉影院新发布页： www.5280.fun    "搜索url": "https://search.ymck.me/index.php?q={wd}",

    "作者": "荷城茶秀",
    "站名": "新视觉影视",
    "主页url": "https://www.80yy3.com",
    "简介": "video-info-item video-info-content vod_content\"&&</div>",
    "导演": "导演：&&</div>",
    "主演": "主演：&&</div>",
    "影片类型": "video-tag-icon\">&&立即播放",
    "影片状态": "集数：&&</div>",
    "数组": "module-item-pic\">&&module-item\">",
    "图片": "data-src=\"&&\"",
    "标题": "title=\"&&\"",
    "副标题": "module-item-text\">&&</div>",
    "链接": "href=\"&&\"",
    "搜索模式": "1",
    "搜索url": "https://ymck.pro/search/wd/{wd}.html",
    "搜索数组": "<b>&&</b>[包含:新视觉影视]",
    "搜索副标题": "<a>&&</a>",
    "搜索标题": "class='movie_name'>&&</a>",
    "搜索链接": "href=\"&&\"",
    "搜索图片": "http://img.vopox.net/wp-content/uploads/2023/03/y2fga2jzwq2.jpg",
    "线路数组": "data-dropdown-value=&&</div>",
    "线路标题": "X影视-+<span>&&</small>[替换:蓝光专享线路>>蓝光①#在线观看线路>>在线#极速-01线路>>01线路#极速播放线路>>极速#蓝光专线2线路>>蓝光②#蓝光专享2线路>>蓝光③#蓝光专享3线路>>蓝光④#</span><small>>>>线路共]+集",
    "播放数组": "sort-item\"&&</div>",
    "播放标题": "<span>&&</span>",
    "播放列表": "<a&&</a>",
    "分类url": "https://www.80yy3.com/vodshow/{cateId}-{area}-{by}-{class}-{lang}----{catePg}---{year}.html;;ak",
    "分类": "电影$1#电视剧$2#综艺$3#动漫$4",
    "筛选": {
        "1": [
           
            {
                "key": "class",
                "name": "剧情",
                "value": [
                    {
                        "n": "全部剧情",
                        "v": ""
                    },
                    {
                        "n": "喜剧",
                        "v": "喜剧"
                    },
                    {
                        "n": "爱情",
                        "v": "爱情"
                    },
                    {
                        "n": "恐怖",
                        "v": "恐怖"
                    },
                    {
                        "n": "动作",
                        "v": "动作"
                    },
                    {
                        "n": "科幻",
                        "v": "科幻"
                    },
                    {
                        "n": "剧情",
                        "v": "剧情"
                    },
                    {
                        "n": "战争",
                        "v": "战争"
                    },
                    {
                        "n": "警匪",
                        "v": "警匪"
                    },
                    {
                        "n": "犯罪",
                        "v": "犯罪"
                    },
                    {
                        "n": "动画",
                        "v": "动画"
                    },
                    {
                        "n": "奇幻",
                        "v": "奇幻"
                    },
                    {
                        "n": "武侠",
                        "v": "武侠"
                    },
                    {
                        "n": "冒险",
                        "v": "冒险"
                    },
                    {
                        "n": "枪战",
                        "v": "枪战"
                    },
                    {
                        "n": "恐怖",
                        "v": "恐怖"
                    },
                    {
                        "n": "悬疑",
                        "v": "悬疑"
                    },
                    {
                        "n": "惊悚",
                        "v": "惊悚"
                    },
                    {
                        "n": "经典",
                        "v": "经常"
                    },
                    {
                        "n": "青春",
                        "v": "青春"
                    },
                    {
                        "n": "文艺",
                        "v": "文艺"
                    },
                    {
                        "n": "微电影",
                        "v": "微电影"
                    },
                    {
                        "n": "古装",
                        "v": "古装"
                    },
                    {
                        "n": "儿童",
                        "v": "儿童"
                    },
                    {
                        "n": "网络电影",
                        "v": "网络电影"
                    }
                ]
            },
            {
                "key": "area",
                "name": "地区",
                "value": [
                    {
                        "n": "全部地区",
                        "v": ""
                    },
                    {
                        "n": "中国大陆",
                        "v": "中国大陆"
                    },
                    {
                        "n": "中国香港",
                        "v": "中国香港"
                    },
                    {
                        "n": "中国台湾",
                        "v": "中国台湾"
                    },
                    {
                        "n": "美国",
                        "v": "美国"
                    },
                    {
                        "n": "法国",
                        "v": "法国"
                    },
                    {
                        "n": "英国",
                        "v": "英国"
                    },
                    {
                        "n": "日本",
                        "v": "日本"
                    },
                    {
                        "n": "韩国",
                        "v": "韩国"
                    },
                    {
                        "n": "德国",
                        "v": "德国"
                    },
                    {
                        "n": "泰国",
                        "v": "泰国"
                    },
                    {
                        "n": "印度",
                        "v": "印度"
                    },
                    {
                        "n": "意大利",
                        "v": "意大利"
                    },
                    {
                        "n": "西班牙",
                        "v": "西班牙"
                    },
                    {
                        "n": "加拿大",
                        "v": "加拿大"
                    },
                    {
                        "n": "其它",
                        "v": "其它"
                    }
                ]
            },
           
            {
                "key": "year",
                "name": "时间",
                "value": [
                    {
                        "n": "全部时间",
                        "v": ""
                    },
                    {
                        "n": "2023",
                        "v": "2023"
                    },
                    {
                        "n": "2022",
                        "v": "2022"
                    },
                    {
                        "n": "2021",
                        "v": "2021"
                    },
                    {
                        "n": "2020",
                        "v": "2020"
                    },
                    {
                        "n": "2019",
                        "v": "2019"
                    },
                    {
                        "n": "2018",
                        "v": "2018"
                    },
                    {
                        "n": "2017",
                        "v": "2017"
                    },
                    {
                        "n": "2016",
                        "v": "2016"
                    },
                    {
                        "n": "2015",
                        "v": "2015"
                    },
                    {
                        "n": "2014",
                        "v": "2014"
                    },
                    {
                        "n": "2013",
                        "v": "2013"
                    },
                    {
                        "n": "2012",
                        "v": "2012"
                    },
                    {
                        "n": "2011",
                        "v": "2011"
                    },
                    {
                        "n": "2010",
                        "v": "2010"
                    }
                ]
            },
            {
                "key": "by",
                "name": "排序",
                "value": [
                    {
                        "n": "全部排序",
                        "v": ""
                    },
                    {
                        "n": "时间排序",
                        "v": "time"
                    },
                    {
                        "n": "人气排序",
                        "v": "hits"
                    },
                    {
                        "n": "评分排序",
                        "v": "score"
                    }
                ]
            }
        ],
        "2": [
            
            {
                "key": "class",
                "name": "剧情",
                "value": [
                      {
                        "n": "短剧",
                        "v": "短剧"
                    },
                    {
                        "n": "全部剧情",
                        "v": ""
                    },
                     {
                        "n": "爱情",
                        "v": "爱情"
                    },
                      {
                        "n": "悬疑",
                        "v": "悬疑"
                    },
           {
                        "n": "喜剧",
                        "v": "喜剧"
                    },
                    {
                        "n": "古装",
                        "v": "古装"
                    },
                    {
                        "n": "战争",
                        "v": "战争"
                    },
                    {
                        "n": "青春",
                        "v": "青春"
                    },
                    {
                        "n": "历史",
                        "v": "历史"
                    },
                    {
                        "n": "网剧",
                        "v": "网剧"
                    },
                    {
                        "n": "奇幻",
                        "v": "奇幻"
                    },
                    {
                        "n": "冒险",
                        "v": "冒险"
                    },
                    {
                        "n": "励志",
                        "v": "励志"
                    },
                    {
                        "n": "犯罪",
                        "v": "犯罪"
                    },
                    {
                        "n": "商战",
                        "v": "商战"
                    },
                    {
                        "n": "恐怖",
                        "v": "恐怖"
                    },
                    {
                        "n": "穿越",
                        "v": "穿越"
                    },
                    {
                        "n": "农村",
                        "v": "农村"
                    },
                    {
                        "n": "商业",
                        "v": "商业"
                    },

                    {
                        "n": "其他",
                        "v": "其他"
                    }
                ]
            },
            {
                "key": "area",
                "name": "地区",
                "value": [
                    {
                        "n": "全部地区",
                        "v": ""
                    },
                    {
                        "n": "中国大陆",
                        "v": "中国大陆"
                    },
                    {
                        "n": "韩国",
                        "v": "韩国"
                    },
                    {
                        "n": "中国香港",
                        "v": "中国香港"
                    },
                    {
                        "n": "中国台湾",
                        "v": "中国台湾"
                    },
                    {
                        "n": "日本",
                        "v": "日本"
                    },
                    {
                        "n": "美国",
                        "v": "美国"
                    },
                    {
                        "n": "泰国",
                        "v": "泰国"
                    },
                    {
                        "n": "英国",
                        "v": "英国"
                    },
                    {
                        "n": "新加坡",
                        "v": "新加坡"
                    },
                    {
                        "n": "其他",
                        "v": "其他"
                    }
                ]
            },
           
            {
                "key": "year",
                "name": "年份",
                "value": [
                    {
                        "n": "全部时间",
                        "v": ""
                    },
                    {
                        "n": "2023",
                        "v": "2023"
                    },
                    {
                        "n": "2022",
                        "v": "2022"
                    },
                    {
                        "n": "2021",
                        "v": "2021"
                    },
                    {
                        "n": "2020",
                        "v": "2020"
                    },
                    {
                        "n": "2019",
                        "v": "2019"
                    },
                    {
                        "n": "2018",
                        "v": "2018"
                    },
                    {
                        "n": "2017",
                        "v": "2017"
                    },
                    {
                        "n": "2016",
                        "v": "2016"
                    },
                    {
                        "n": "2015",
                        "v": "2015"
                    },
                    {
                        "n": "2014",
                        "v": "2014"
                    },
                    {
                        "n": "2013",
                        "v": "2013"
                    },
                    {
                        "n": "2012",
                        "v": "2012"
                    },
                    {
                        "n": "2011",
                        "v": "2011"
                    },
                    {
                        "n": "2010",
                        "v": "2010"
                    }
                ]
            },
            {
                "key": "by",
                "name": "排序",
                "value": [
                    {
                        "n": "全部排序",
                        "v": ""
                    },
                    {
                        "n": "时间排序",
                        "v": "time"
                    },
                    {
                        "n": "人气排序",
                        "v": "hits"
                    },
                    {
                        "n": "评分排序",
                        "v": "score"
                    }
                ]
            }
        ],


        "3": [
           
       
            {
                "key": "class",
                "name": "剧情",
                "value": [
                    {
                        "n": "全部剧情",
                        "v": ""
                    },
                    {
                        "n": "游戏",
                        "v": "游戏"
                    },
                    {
                        "n": "脱口秀",
                        "v": "脱口秀"
                    },
                    {
                        "n": "音乐",
                        "v": "音乐"
                    },
                    {
                        "n": "情感",
                        "v": "情感"
                    },
                    {
                        "n": "生活",
                        "v": "生活"
                    },
                    {
                        "n": "职场",
                        "v": "职场"
                    },
                    {
                        "n": "真人秀",
                        "v": "真人秀"
                    },
                    {
                        "n": "搞笑",
                        "v": "搞笑"
                    },
                    {
                        "n": "访谈",
                        "v": "访谈"
                    },
                    {
                        "n": "益智",
                        "v": "益智"
                    },
                    {
                        "n": "体育",
                        "v": "体育"
                    },
                    {
                        "n": "少儿",
                        "v": "少儿"
                    },
                    {
                        "n": "时尚",
                        "v": "时尚"
                    },
                                        {
                        "n": "其他",
                        "v": "其他"
                    }
                ]
            },
            {
                "key": "area",
                "name": "地区",
                "value": [
                    {
                        "n": "全部地区",
                        "v": ""
                    },
                    {
                        "n": "中国大陆",
                        "v": "中国大陆"
                    },
                    {
                        "n": "港台",
                        "v": "港台"
                    },
                    {
                        "n": "韩国",
                        "v": "韩国"
                    },
                    {
                        "n": "欧美",
                        "v": "欧美"
                    },
                    {
                        "n": "其他",
                        "v": "其他"
                    }
                ]
            },
           
            {
                "key": "year",
                "name": "年份",
                "value": [
                    {
                        "n": "全部时间",
                        "v": ""
                    },
                    {
                        "n": "2023",
                        "v": "2023"
                    },
                    {
                        "n": "2022",
                        "v": "2022"
                    },
                    {
                        "n": "2021",
                        "v": "2021"
                    },
                    {
                        "n": "2020",
                        "v": "2020"
                    },
                    {
                        "n": "2019",
                        "v": "2019"
                    },
                    {
                        "n": "2018",
                        "v": "2018"
                    },
                    {
                        "n": "2017",
                        "v": "2017"
                    },
                    {
                        "n": "2016",
                        "v": "2016"
                    },
                    {
                        "n": "2015",
                        "v": "2015"
                    },
                    {
                        "n": "2014",
                        "v": "2014"
                    },
                    {
                        "n": "2013",
                        "v": "2013"
                    },
                    {
                        "n": "2012",
                        "v": "2012"
                    },
                    {
                        "n": "2011",
                        "v": "2011"
                    },
                    {
                        "n": "2010",
                        "v": "2010"
                    }
                ]
            },
            {
                "key": "by",
                "name": "排序",
                "value": [
                    {
                        "n": "全部排序",
                        "v": ""
                    },
                    {
                        "n": "时间排序",
                        "v": "time"
                    },
                    {
                        "n": "人气排序",
                        "v": "hist"
                    },
                    {
                        "n": "评分排序",
                        "v": "score"
                    }
                ]
            }
        ],

        "4": [
            
            {
                "key": "class",
                "name": "剧情",
                "value": [
                    {
                        "n": "全部剧情",
                        "v": ""
                    },
                    {
                        "n": "冒险",
                        "v": "冒险"
                    },
                    {
                        "n": "战斗",
                        "v": "战斗"
                    },
                    {
                        "n": "搞笑",
                        "v": "搞笑"
                    },
                    {
                        "n": "经典",
                        "v": "经典"
                    },
                    {
                        "n": "科幻",
                        "v": "科幻"
                    },
                    {
                        "n": "玄幻",
                        "v": "玄幻"
                    },
                    {
                        "n": "魔幻",
                        "v": "魔幻"
                    },
                    {
                        "n": "武侠",
                        "v": "武侠"
                    },
                    {
                        "n": "恋爱",
                        "v": "恋爱"
                    },
                    {
                        "n": "推理",
                        "v": "推理"
                    },
                    {
                        "n": "日常",
                        "v": "日常"
                    },
                    {
                        "n": "校园",
                        "v": "校园"
                    },
                    {
                        "n": "悬疑",
                        "v": "悬疑"
                    },
                    {
                        "n": "真人",
                        "v": "真人"
                    },
                    {
                        "n": "历史",
                        "v": "历史"
                    },

                    {
                        "n": "其他",
                        "v": "其他"
                    }
                ]
            },
            {
                "key": "area",
                "name": "地区",
                "value": [
                    {
                        "n": "全部地区",
                        "v": ""
                    },
                    {
                        "n": "中国大陆",
                        "v": "中国大陆"
                    },
                    {
                        "n": "日本",
                        "v": "日本"
                    },
                    {
                        "n": "欧美",
                        "v": "欧美"
                    },
                    {
                        "n": "其他",
                        "v": "其他"
                    }
                ]
            },
          
            {
                "key": "year",
                "name": "年份",
                "value": [
                    {
                        "n": "全部时间",
                        "v": ""
                    },
                    {
                        "n": "2023",
                        "v": "2023"
                    },
                    {
                        "n": "2022",
                        "v": "2022"
                    },
                    {
                        "n": "2021",
                        "v": "2021"
                    },
                    {
                        "n": "2020",
                        "v": "2020"
                    },
                    {
                        "n": "2019",
                        "v": "2019"
                    },
                    {
                        "n": "2018",
                        "v": "2018"
                    },
                    {
                        "n": "2017",
                        "v": "2017"
                    },
                    {
                        "n": "2016",
                        "v": "2016"
                    },
                    {
                        "n": "2015",
                        "v": "2015"
                    },
                    {
                        "n": "2014",
                        "v": "2014"
                    },
                    {
                        "n": "2013",
                        "v": "2013"
                    },
                    {
                        "n": "2012",
                        "v": "2012"
                    },
                    {
                        "n": "2011",
                        "v": "2011"
                    },
                    {
                        "n": "2010",
                        "v": "2010"
                    }
                ]
            },
            {
                "key": "by",
                "name": "排序",
                "value": [
                    {
                        "n": "全部排序",
                        "v": ""
                    },
                    {
                        "n": "时间排序",
                        "v": "time"
                    },
                    {
                        "n": "人气排序",
                        "v": "hist"
                    },
                    {
                        "n": "评分排序",
                        "v": "score"
                    }
                ]
            }
        ]
    }
}
